report
…
ddddb <- dddb %>%
  semi_join(top_codes)

## Joining, by = "key"

small_plot <- dddd %>% 
  group_by(week) %>% 
  summarize(sum_val = sum(val))

small_plot

## # A tibble: 56 x 2
##    week                sum_val
##  * <dttm>                <dbl>
##  1 2020-03-01 00:00:00       4
##  2 2020-03-02 00:00:00       9
##  3 2020-03-03 00:00:00      35
##  4 2020-03-04 00:00:00      27
##  5 2020-03-05 00:00:00      33
##  6 2020-03-06 00:00:00      35
##  7 2020-03-07 00:00:00      26
##  8 2020-03-08 00:00:00      15
##  9 2020-03-09 00:00:00       5
## 10 2020-03-10 00:00:00      27
## #  with 46 more rows
…
